The backquote way
total 45
drwxrwxr-x+ 52 root  admin  1768 Nov 19 12:54 Applications
drwxr-xr-x+ 62 root  wheel  2108 Oct 29 13:26 Library
drwxr-xr-x@  2 root  wheel    68 Oct 29 13:20 Network
drwxr-xr-x@  4 root  wheel   136 Oct 29 13:13 System
drwxr-xr-x   6 root  admin   204 Oct 29 13:20 Users
drwxrwxrwt@  3 root  admin   102 Dec  9 13:00 Volumes
drwxr-xr-x@ 39 root  wheel  1326 Oct 17 16:47 bin
drwxrwxr-t@  2 root  admin    68 Oct 29 13:20 cores
dr-xr-xr-x   3 root  wheel  4311 Oct 29 13:30 dev
lrwxr-xr-x@  1 root  wheel    11 Oct 29 13:19 etc -> private/etc
dr-xr-xr-x   2 root  wheel     1 Oct 29 13:31 home
-rw-r--r--@  1 root  wheel   313 Aug 22 19:35 installer.failurerequests
dr-xr-xr-x   2 root  wheel     1 Oct 29 13:31 net
drwxr-xr-x@  4 root  wheel   136 Nov 12 14:38 opt
drwxr-xr-x@  6 root  wheel   204 Oct 29 13:20 private
drwxr-xr-x@ 59 root  wheel  2006 Oct 29 13:19 sbin
lrwxr-xr-x@  1 root  wheel    11 Oct 29 13:19 tmp -> private/tmp
drwxr-xr-x@ 12 root  wheel   408 Oct 29 13:27 usr
lrwxr-xr-x@  1 root  wheel    11 Oct 29 13:19 var -> private/var
